<?xml version="1.0" encoding="utf-8"?>
<!-- Generator: Adobe Illustrator 15.0.0, SVG Export Plug-In . SVG Version: 6.00 Build 0)  -->
<!DOCTYPE svg PUBLIC "-//W3C//DTD SVG 1.1//EN" "http://www.w3.org/Graphics/SVG/1.1/DTD/svg11.dtd">
<svg version="1.1" id="Calque_1" xmlns="http://www.w3.org/2000/svg" xmlns:xlink="http://www.w3.org/1999/xlink" x="0px" y="0px"
	 width="192px" height="192px" viewBox="0 0 192 192" enable-background="new 0 0 192 192" xml:space="preserve">
<title>icons-cs5</title>
<path d="M164.01,156.915H27.99c-4.418,0-8-3.582-8-8v-68.51c0-2.547,1.212-4.941,3.266-6.449l42.66-31.32
	c2.431-1.785,5.658-2.051,8.349-0.688c2.69,1.362,4.386,4.122,4.386,7.137v16.97l38.464-23.775c2.467-1.524,5.566-1.595,8.102-0.182
	c2.534,1.413,4.104,4.086,4.104,6.987v15.528l29.957-21.979c2.431-1.784,5.659-2.048,8.348-0.686
	c2.689,1.362,4.385,4.121,4.385,7.136v99.83C172.01,153.333,168.428,156.915,164.01,156.915z M35.99,140.915h120.02V64.877
	l-29.957,21.979c-2.43,1.784-5.658,2.049-8.348,0.687s-4.385-4.122-4.385-7.137v-16.97L74.856,87.21
	c-2.469,1.526-5.569,1.594-8.102,0.183c-2.534-1.412-4.104-4.086-4.104-6.987V64.883L35.99,84.456V140.915z"/>
</svg>
