<?xml version="1.0" encoding="utf-8"?>
<!-- Generator: Adobe Illustrator 16.0.0, SVG Export Plug-In . SVG Version: 6.00 Build 0)  -->
<!DOCTYPE svg PUBLIC "-//W3C//DTD SVG 1.1//EN" "http://www.w3.org/Graphics/SVG/1.1/DTD/svg11.dtd">
<svg version="1.1" id="Calque_1" xmlns="http://www.w3.org/2000/svg" xmlns:xlink="http://www.w3.org/1999/xlink" x="0px" y="0px"
	 width="192px" height="192px" viewBox="-88 -88 192 192" enable-background="new -88 -88 192 192" xml:space="preserve">
<path d="M103.957,8.029c0-52.86-42.963-95.7-95.952-95.7s-95.952,42.84-95.952,95.7
	c0,51.707,41.118,93.792,92.509,95.606c1.191,0.017,5.194,0.077,6.887-0.012C62.821,101.821,103.957,59.725,103.957,8.029z
	 M83.015-2.067H63.22c-1.054-19.876-5.247-37.616-12.298-52.081C68.081-42.324,80.134-23.625,83.015-2.067z M-2.121-63.829v61.762
	h-24.802C-24.955-34.875-13.535-55.853-2.121-63.829z M-2.121,18.12v61.774c-11.414-7.988-22.834-28.978-24.802-61.774H-2.121z
	 M18.125,79.895V18.12h24.808C40.965,50.917,29.557,71.906,18.125,79.895z M18.125-2.067v-61.762
	c11.432,7.988,22.84,28.966,24.808,61.762H18.125z M-34.911-54.148c-7.051,14.465-11.25,32.205-12.305,52.081h-19.801
	C-64.117-23.625-52.088-42.324-34.911-54.148z M-67.017,18.12h19.801c1.055,19.866,5.253,37.599,12.293,52.076
	C-52.088,58.366-64.117,39.673-67.017,18.12z M50.91,70.196c7.063-14.478,11.256-32.21,12.31-52.076h19.783
	C80.134,39.673,68.081,58.366,50.91,70.196z"/>
</svg>
