<svg id="Calque_1" data-name="Calque 1" xmlns="http://www.w3.org/2000/svg" width="192" height="192" viewBox="0 0 192 192">
  <title>icons-cs5</title>
  <path d="M95.68,163.71a68,68,0,1,0-48.11-19.93l19.79,19.93" style="fill: none;stroke-linecap: round;stroke-linejoin: round;stroke-width: 16px"/>
  <polyline points="68.74 124.36 68.74 164.38 28.71 164.38" style="fill: none;stroke-linecap: round;stroke-linejoin: round;stroke-width: 16px"/>
</svg>
